COMPSCIX 415.2 Homework 5/Midterm
…
3. Which city, month and year had the highest number of sales?

Houston had highest number of sales in July of 2015.

City with highest number of sales of all times is Houston.

Month with highest number of sales of all times is July 2015.

Year with highest number of sales of all times is 2006

txhousing %>% group_by(city, month, year) %>% summarise(sales = sum(sales)) %>% arrange(desc(sales)) 

## # A tibble: 8,602 x 4
## # Groups:   city, month [552]
##    city    month  year sales
##    <chr>   <int> <int> <dbl>
##  1 Houston     7  2015  8945
##  2 Houston     6  2006  8628
##  3 Houston     7  2013  8468
##  4 Houston     6  2015  8449
##  5 Houston     5  2013  8439
##  6 Houston     6  2014  8391
##  7 Houston     7  2014  8391
##  8 Houston     8  2014  8167
##  9 Houston     8  2013  8155
## 10 Houston     5  2006  8040
## #  with 8,592 more rows

txhousing %>% group_by(city) %>% summarise(sales = sum(sales, na.rm = TRUE)) %>% arrange(desc(sales))

## # A tibble: 46 x 2
##    city                sales
##    <chr>               <dbl>
##  1 Houston           1043999
##  2 Dallas             816122
##  3 Austin             373381
##  4 San Antonio        322097
##  5 Collin County      202892
##  6 Fort Bend          153088
##  7 Fort Worth         144791
##  8 NE Tarrant County  128007
##  9 Denton County      117405
## 10 Montgomery County  104589
## #  with 36 more rows

txhousing %>% group_by(year, month) %>% summarise(sales = sum(sales, na.rm = TRUE)) %>% arrange(desc(sales))

## # A tibble: 187 x 3
## # Groups:   year [16]
##     year month sales
##    <int> <int> <dbl>
##  1  2015     7 37651
##  2  2006     6 37570
##  3  2015     6 37099
##  4  2014     6 35766
##  5  2013     7 35412
##  6  2014     7 35277
##  7  2013     5 34866
##  8  2006     8 34701
##  9  2013     8 34566
## 10  2006     5 34340
## #  with 177 more rows
…
6. Looking at only the cities and months with greater than 500 sales:

txhousing %>% group_by(city, month) %>% 
         filter(sales > 500)

## # A tibble: 1,883 x 9
## # Groups:   city, month [153]
##    city       year month sales   volume median listings inventory  date
##    <chr>     <int> <int> <dbl>    <dbl>  <dbl>    <dbl>     <dbl> <dbl>
##  1 Arlington  2000     8   507 60875199 103400     1417       3.5 2001.
##  2 Arlington  2001     5   536 69878959 114400     1592       3.7 2001.
##  3 Arlington  2001     6   534 67744182 108500     1627       3.8 2001.
##  4 Arlington  2001     8   505 65080743 113600     1616       3.7 2002.
##  5 Arlington  2002     5   503 67240236 116100     1741       3.9 2002.
##  6 Arlington  2002     7   509 66954143 119100     1925       4.4 2002.
##  7 Arlington  2003     5   502 67131982 118000     2544       5.9 2003.
##  8 Arlington  2003     7   524 73194692 123500     2799       6.5 2004.
##  9 Arlington  2003     8   531 72397143 123900     2801       6.4 2004.
## 10 Arlington  2004     5   527 72401436 118300     2922       6.5 2004.
## #  with 1,873 more rows
…
